Kapitel 6 Tidyverse | Datenanalyse mit R
…
## Parsed with column specification:
## cols(
##   STATIONS_ID = col_double(),
##   MESS_DATUM = col_double(),
##   QN_9 = col_double(),
##   TT_TU = col_double(),
##   RF_TU = col_double(),
##   eor = col_character()
## )

Eine weitere Kontrolle bietet die Funktion print(), die das eingelesene Ergebnis übersichtlich (und im Notebook interaktiv) darstellt. Sie müssen hier nicht mehr head() verwenden, da grundsätzlich nur die ersten 10 Zeilen dargestellt werden.

print(temp_humid)

## # A tibble: 39,600 x 6
##    STATIONS_ID MESS_DATUM  QN_9 TT_TU RF_TU eor  
##          <dbl>      <dbl> <dbl> <dbl> <dbl> <chr>
##  1        2261 2018111900     3  -2.8    99 eor  
##  2        2261 2018111901     3  -2.5   100 eor  
##  3        2261 2018111902     3  -2.3   100 eor  
##  4        2261 2018111903     3  -2     100 eor  
##  5        2261 2018111904     3  -1.9    99 eor  
##  6        2261 2018111905     3  -2.1    99 eor  
##  7        2261 2018111906     3  -1.8    99 eor  
##  8        2261 2018111907     3  -1.5    99 eor  
##  9        2261 2018111908     3  -1.1    99 eor  
## 10        2261 2018111909     3  -0.6    97 eor  
## # … with 39,590 more rows

Das gleiche Ergebnis bekommen Sie auch ohne print(), wenn Sie wie gewohnt den Namen des Objekts tippen.

temp_humid

## # A tibble: 39,600 x 6
##    STATIONS_ID MESS_DATUM  QN_9 TT_TU RF_TU eor  
##          <dbl>      <dbl> <dbl> <dbl> <dbl> <chr>
##  1        2261 2018111900     3  -2.8    99 eor  
##  2        2261 2018111901     3  -2.5   100 eor  
##  3        2261 2018111902     3  -2.3   100 eor  
##  4        2261 2018111903     3  -2     100 eor  
##  5        2261 2018111904     3  -1.9    99 eor  
##  6        2261 2018111905     3  -2.1    99 eor  
##  7        2261 2018111906     3  -1.8    99 eor  
##  8        2261 2018111907     3  -1.5    99 eor  
##  9        2261 2018111908     3  -1.1    99 eor  
## 10        2261 2018111909     3  -0.6    97 eor  
## # … with 39,590 more rows
…
library(lubridate)

## 
## Attaching package: 'lubridate'

## The following objects are masked from 'package:base':
## 
##     date, intersect, setdiff, union

temp_humid$MESS_DATUM <- ymd_h(temp_humid$MESS_DATUM)

print(temp_humid)

## # A tibble: 39,600 x 6
##    STATIONS_ID MESS_DATUM           QN_9 TT_TU RF_TU eor  
##          <dbl> <dttm>              <dbl> <dbl> <dbl> <chr>
##  1        2261 2018-11-19 00:00:00     3  -2.8    99 eor  
##  2        2261 2018-11-19 01:00:00     3  -2.5   100 eor  
##  3        2261 2018-11-19 02:00:00     3  -2.3   100 eor  
##  4        2261 2018-11-19 03:00:00     3  -2     100 eor  
##  5        2261 2018-11-19 04:00:00     3  -1.9    99 eor  
##  6        2261 2018-11-19 05:00:00     3  -2.1    99 eor  
##  7        2261 2018-11-19 06:00:00     3  -1.8    99 eor  
##  8        2261 2018-11-19 07:00:00     3  -1.5    99 eor  
##  9        2261 2018-11-19 08:00:00     3  -1.1    99 eor  
## 10        2261 2018-11-19 09:00:00     3  -0.6    97 eor  
## # … with 39,590 more rows
…
6.2.3 Daten plotten

Wir wählen nur die Station Köln-Bonn und plotten die Stundenwerte der Temperatur mit dem Paket ggplot2.

# Köln-Bonn wählen
koeln <- temp_humid %>% 
  filter(STATIONS_ID == station_ids$Koeln)

koeln

## # A tibble: 13,200 x 6
##    STATIONS_ID MESS_DATUM           QN_9 TT_TU RF_TU eor  
##          <dbl> <dttm>              <dbl> <dbl> <dbl> <chr>
##  1        2667 2018-11-19 00:00:00     3  -2.9    69 eor  
##  2        2667 2018-11-19 01:00:00     3  -1.7    78 eor  
##  3        2667 2018-11-19 02:00:00     3  -2.4    82 eor  
##  4        2667 2018-11-19 03:00:00     3   0.2    89 eor  
##  5        2667 2018-11-19 04:00:00     3   1.7    84 eor  
##  6        2667 2018-11-19 05:00:00     3   0.3    90 eor  
##  7        2667 2018-11-19 06:00:00     3   3.4    84 eor  
##  8        2667 2018-11-19 07:00:00     3   4.1    81 eor  
##  9        2667 2018-11-19 08:00:00     3   3.9    80 eor  
## 10        2667 2018-11-19 09:00:00     3   4.8    78 eor  
## # … with 13,190 more rows
…
Sie werden sehr bald schon das Paket ggplot2 nicht mehr missen wollen. Es erstellt mit wenig Aufwand sehr ansehnliche Grafiken. Natürlich müssen Sie, wie in Base-R auch, für professionelle Grafiken nacharbeiten.

ggplot2 folgt einer sogen. Grafikgrammatik (grammer of graphics), indem es seine Grafiken mit ‘+’ aufbaut. Erst sagt man in der Funktion ggplot() welchen Datensatz man plotten möchte, was auf die x- und y-Achse kommt und ob man z.B. Farbe für Gruppen in Daten möchte. All diese sichtbaren Elemente nennt man Ästhetiken (Parameter aes). Erst wenn diese ‘Formalien’ geklärt sind, sagt man, welche Form der Darstellung man möchte. Im oberen Beispiel ist es ein Linienplot. Alle Darstellungsarten in ggplot2 beginnen mit geom_*() und sind daher konsistent benannt. Die Informationen zu Daten, x-, y-Achse etc. werden an die geom_*()-Funktionen von der Mutterfunktion ggplot() weiter vererbt. Daher sind die Klammern in geom_line() leer.

Wir wollen nun die Monatsmittelwerte für die Temperatur berechnen und diese darstellen. Als erstes erstellen wir zwei neue Spalten, die jeweils das Jahr und den Monat beinhalten. Die beiden neuen Spalten werden am Ende von temp_humid angehängt.

temp_humid <- mutate(temp_humid, 
                     year = year(temp_humid$MESS_DATUM),
                     month = month(temp_humid$MESS_DATUM))

temp_humid

## # A tibble: 39,600 x 8
##    STATIONS_ID MESS_DATUM           QN_9 TT_TU RF_TU eor    year month
##          <dbl> <dttm>              <dbl> <dbl> <dbl> <chr> <dbl> <dbl>
##  1        2261 2018-11-19 00:00:00     3  -2.8    99 eor    2018    11
##  2        2261 2018-11-19 01:00:00     3  -2.5   100 eor    2018    11
##  3        2261 2018-11-19 02:00:00     3  -2.3   100 eor    2018    11
##  4        2261 2018-11-19 03:00:00     3  -2     100 eor    2018    11
##  5        2261 2018-11-19 04:00:00     3  -1.9    99 eor    2018    11
##  6        2261 2018-11-19 05:00:00     3  -2.1    99 eor    2018    11
##  7        2261 2018-11-19 06:00:00     3  -1.8    99 eor    2018    11
##  8        2261 2018-11-19 07:00:00     3  -1.5    99 eor    2018    11
##  9        2261 2018-11-19 08:00:00     3  -1.1    99 eor    2018    11
## 10        2261 2018-11-19 09:00:00     3  -0.6    97 eor    2018    11
## # … with 39,590 more rows

Jetzt können wir einen neuen Datensatz mit den Mittelwerten erstellen. Dafür gruppieren wir erst einmal die Daten nach STATIONS_ID, year und month. Die Mittelwerte sollen ja je Station, Jahr und Monat berechnet werden.

by_month <- group_by(temp_humid, STATIONS_ID, year, month)
monthly_means <- summarize(by_month, mean_T = mean(TT_TU), mean_RH = mean(RF_TU))

## `summarise()` regrouping output by 'STATIONS_ID', 'year' (override with `.groups` argument)

monthly_means

## # A tibble: 57 x 5
## # Groups:   STATIONS_ID, year [9]
##    STATIONS_ID  year month mean_T mean_RH
##          <dbl> <dbl> <dbl>  <dbl>   <dbl>
##  1        1420  2018    11   4.00    79.7
##  2        1420  2018    12   4.73    83.7
##  3        1420  2019     1   2.12    79.3
##  4        1420  2019     2   4.48    74.1
##  5        1420  2019     3   8.28    68.5
##  6        1420  2019     4  11.7     61.0
##  7        1420  2019     5  12.7     67.5
##  8        1420  2019     6  21.4     60.6
##  9        1420  2019     7  21.6     55.6
## 10        1420  2019     8  20.7     65.6
## # … with 47 more rows
…
