Kapitel 8 Bootstrapping und Konfidenzintervalle | Datenanalyse mit R
…
verkehrsmittel <- sapply(anreise, function(x) {
  if(x <= 10) 'zu_fuss'
  else if(x > 10 & x <= 15) sample(c('zu_fuss', 'fahrrad'), size = 1)
  else if(x > 15 & x <= 45) sample(c('bus', 'fahrrad', 'auto'), size = 1)
  else sample(c('bus', 'auto'), size = 1)
})

zeit_bib <- 5 * 60 - 0.7 * anreise + rnorm(length(anreise), 0, 20)

grundgesamtheit <- tibble(student_id, geschlecht, wohnort, verkehrsmittel, anreise, zeit_bib)

grundgesamtheit

## # A tibble: 12,000 x 6
##    student_id geschlecht wohnort verkehrsmittel anreise zeit_bib
##         <int> <chr>      <chr>   <chr>            <dbl>    <dbl>
##  1          1 w          stadt   bus              15.1      294.
##  2          2 w          land    fahrrad          32.6      254.
##  3          3 w          stadt   fahrrad          19.3      231.
##  4          4 m          land    auto             35.9      245.
##  5          5 m          land    bus              37.9      234.
##  6          6 w          stadt   zu_fuss           6.59     303.
##  7          7 w          stadt   bus              23.5      284.
##  8          8 m          land    auto             36.2      274.
##  9          9 m          stadt   fahrrad          24.3      299.
## 10         10 w          stadt   bus              21.0      282.
## # … with 11,990 more rows

Nun befragen wir 200 Studierende.

set.seed(345)

befragung_size <- 200

befragung <- rep_sample_n(grundgesamtheit, size = befragung_size, replace = FALSE, reps = 1)

befragung

## # A tibble: 200 x 7
## # Groups:   replicate [1]
##    replicate student_id geschlecht wohnort verkehrsmittel anreise zeit_bib
##        <int>      <int> <chr>      <chr>   <chr>            <dbl>    <dbl>
##  1         1       1623 m          stadt   zu_fuss           7.06     299.
##  2         1       9171 m          stadt   fahrrad          11.3      278.
##  3         1      10207 w          land    bus             107.       199.
##  4         1       3506 w          stadt   bus              25.0      326.
##  5         1       8892 w          stadt   bus              28.1      259.
##  6         1       5460 m          stadt   bus              23.6      299.
##  7         1       6120 w          stadt   bus              20.0      268.
##  8         1        865 w          stadt   fahrrad          26.6      290.
##  9         1      11586 m          land    bus             114.       207.
## 10         1       8153 w          stadt   zu_fuss           8.06     297.
## # … with 190 more rows
…
Wir ziehen nun unsere Bootstrap-Stichproben aus der einen Stichprobe, nämlich der befragung. Achten Sie darauf, wie ähnlich der Code zum Ziehen von echten Stichproben ist. Wir ändern nur replace = TRUE.

set.seed(345)

befragung_size <- 200
number_reps <- 10000

befragung_reps_bootstrap <- rep_sample_n(befragung, size = befragung_size, replace = TRUE, reps = number_reps)

befragung_reps_bootstrap

## # A tibble: 2,000,000 x 7
## # Groups:   replicate [10,000]
##    replicate student_id geschlecht wohnort verkehrsmittel anreise zeit_bib
##        <int>      <int> <chr>      <chr>   <chr>            <dbl>    <dbl>
##  1         1       7038 m          stadt   bus              29.4      243.
##  2         1        493 m          stadt   bus              21.1      303.
##  3         1       3442 m          land    auto             30.3      311.
##  4         1       4920 w          stadt   bus              21.1      290.
##  5         1       3178 w          stadt   zu_fuss           8.07     325.
##  6         1       7694 w          land    auto             31.3      295.
##  7         1       9479 m          land    bus              39.5      302.
##  8         1       3367 m          land    auto             36.4      272.
##  9         1       5985 w          stadt   fahrrad          15.9      303.
## 10         1        843 m          stadt   fahrrad          26.4      300.
## # … with 1,999,990 more rows

Studierende kommen jetzt mehrfach vor, da wir ja mit Zurücklegen gezogen haben. Wir sehen uns das in den erste 50 Bootstrap-Stichproben an.

befragung_reps_bootstrap %>% 
  filter(replicate %in% (1:50)) %>% 
  group_by(replicate, student_id) %>% 
  tally() %>% 
  filter(n != 1) %>% 
  arrange(desc(n))

## # A tibble: 2,657 x 3
## # Groups:   replicate [50]
##    replicate student_id     n
##        <int>      <int> <int>
##  1        43       4787     8
##  2        20       5985     6
##  3        34       7749     6
##  4        38       5641     6
##  5        41       8456     6
##  6         3       7083     5
##  7         3      10943     5
##  8         5       8994     5
##  9         6      10118     5
## 10         8      11425     5
## # … with 2,647 more rows

Nun berechnen wir die Mittelwerte aus den Bootstrap-Stichproben.

res_means_bootstrap <- befragung_reps_bootstrap %>%
  group_by(replicate) %>% 
  summarise(Mittelwert = mean(anreise))

res_means_bootstrap

## # A tibble: 10,000 x 2
##    replicate Mittelwert
##        <int>      <dbl>
##  1         1       32.6
##  2         2       31.9
##  3         3       38.9
##  4         4       33.5
##  5         5       35.4
##  6         6       37.2
##  7         7       34.4
##  8         8       33.4
##  9         9       35.5
## 10        10       31.0
## # … with 9,990 more rows
…
