Kapitel 5 Daten einlesen und visualisieren | Datenanalyse mit R
…
## Rows: 2871 Columns: 6
## ── Column specification ────────────────────────────────────────────────────────
## Delimiter: ";"
## chr  (4): unit, airpol, vehicle, geo
## dbl  (1): values
## date (1): time
## 
## ℹ Use `spec()` to retrieve the full column specification for this data.
## ℹ Specify the column types or set `show_col_types = FALSE` to quiet this message.

Ein kurzer Blick auf den Datensatz. Hierbei handelt es sich um Daten zu Treibhausgasemissionen auf der EU-Ebene, die ich bei eurostat am 30.4.2021 heruntergeladen und vorgefiltert habe. Die Datenbank bietet sehr viele Datensäzte und ist als Quelle für Berichte hervorragend geeignet 😄.

emissions

## # A tibble: 2,871 × 6
##    unit           airpol                         vehicle geo   time       values
##    <chr>          <chr>                          <chr>   <chr> <date>      <dbl>
##  1 Million tonnes Greenhouse gases (CO2, N2O in… Fuel c… Aust… 2018-01-01  14.4 
##  2 Million tonnes Greenhouse gases (CO2, N2O in… Fuel c… Belg… 2018-01-01  14.4 
##  3 Million tonnes Greenhouse gases (CO2, N2O in… Fuel c… Bulg… 2018-01-01   5.78
##  4 Million tonnes Greenhouse gases (CO2, N2O in… Fuel c… Swit… 2018-01-01  11.0 
##  5 Million tonnes Greenhouse gases (CO2, N2O in… Fuel c… Cypr… 2018-01-01   1.38
##  6 Million tonnes Greenhouse gases (CO2, N2O in… Fuel c… Czec… 2018-01-01  11.9 
##  7 Million tonnes Greenhouse gases (CO2, N2O in… Fuel c… Germ… 2018-01-01  97.8 
##  8 Million tonnes Greenhouse gases (CO2, N2O in… Fuel c… Denm… 2018-01-01   6.85
##  9 Million tonnes Greenhouse gases (CO2, N2O in… Fuel c… Esto… 2018-01-01   1.52
## 10 Million tonnes Greenhouse gases (CO2, N2O in… Fuel c… Gree… 2018-01-01   7.61
## # … with 2,861 more rows
…
