Kapitel 3 Datentypen in R | Datenanalyse mit R
…
Man kann nur solche Pakete laden, die man bereits installiert hat. Um ein Paket zu installieren, nutzen wir die Funktion install.packages() und geben den Namen des Pakets in Anführungszeichen an.

install.packages('gapminder')

3.1 Datenobjekte

Nun laden wir den Datensatz gapminder aus dem gleichnamigen Paket mithilfe der Funktion data(). Diese Funktion lädt Datensätze, die bereits in R base oder mit einem Paket installiert wurden.

data(gapminder)

Um sich die Daten anzeigen zu lassen, geben wir den Namen des Datensatzes ein.

gapminder

## # A tibble: 1,704 × 6
##    country     continent  year lifeExp      pop gdpPercap
##    <fct>       <fct>     <int>   <dbl>    <int>     <dbl>
##  1 Afghanistan Asia       1952    28.8  8425333      779.
##  2 Afghanistan Asia       1957    30.3  9240934      821.
##  3 Afghanistan Asia       1962    32.0 10267083      853.
##  4 Afghanistan Asia       1967    34.0 11537966      836.
##  5 Afghanistan Asia       1972    36.1 13079460      740.
##  6 Afghanistan Asia       1977    38.4 14880372      786.
##  7 Afghanistan Asia       1982    39.9 12881816      978.
##  8 Afghanistan Asia       1987    40.8 13867957      852.
##  9 Afghanistan Asia       1992    41.7 16317921      649.
## 10 Afghanistan Asia       1997    41.8 22227415      635.
## # … with 1,694 more rows
…
In einem tibble oder data.frame stellen Spalten verschiedene Variablen dar. So ist etwa die erste Spalte country eine Variable, die Ländernamen enthält. In einer Zelle befindet sich jeweils ein Wert. In jeder Zeile stehen Einträge für verschiedene Variablen, die logisch zusammengehören: in der ersten Zeile befinden sich Daten zu Afghanistan, das in Asien liegt, aus dem Jahr 1952 zu Lebenserwartung, Bevölkerungsgröße und Bruttoinlandsprodukt pro Einwohner. Solche Datenstrukturen nennt man tidy. Spalten (i.e. Variablen) haben in der Regel Namen, und können mit diesen direkt angesprochen werden. Dazu benutzt man das Dollarzeichen, den $-Operator. Um z.B. die Variable country anzusprechen, tippen wir:

gapminder$country

Eine einzelne Spalte eines tibble ist ein Vektor und wird nicht so schön dargestellt wie das Tibble selbst. Um nur die ersten 6 Zeilen zu sehen, kann man die Funktion head() benutzen.

head(gapminder$country)

3.3 Datentypen

Die Datentypen der einzelnen Variablen sieht man in der zweiten Zeile der Ausgabe, wenn man sich das Tibble anzeigen lässt:

gapminder

## # A tibble: 1,704 × 6
##    country     continent  year lifeExp      pop gdpPercap
##    <fct>       <fct>     <int>   <dbl>    <int>     <dbl>
##  1 Afghanistan Asia       1952    28.8  8425333      779.
##  2 Afghanistan Asia       1957    30.3  9240934      821.
##  3 Afghanistan Asia       1962    32.0 10267083      853.
##  4 Afghanistan Asia       1967    34.0 11537966      836.
##  5 Afghanistan Asia       1972    36.1 13079460      740.
##  6 Afghanistan Asia       1977    38.4 14880372      786.
##  7 Afghanistan Asia       1982    39.9 12881816      978.
##  8 Afghanistan Asia       1987    40.8 13867957      852.
##  9 Afghanistan Asia       1992    41.7 16317921      649.
## 10 Afghanistan Asia       1997    41.8 22227415      635.
## # … with 1,694 more rows
…
