Kapitel 9 Hypothesentests mit dem Paket infer | Datenanalyse mit R
…
verkehrsmittel <- sapply(anreise, function(x) {
  if(x <= 10) 'zu_fuss'
  else if(x > 10 & x <= 15) sample(c('zu_fuss', 'fahrrad'), size = 1)
  else if(x > 15 & x <= 45) sample(c('bus', 'fahrrad', 'auto'), size = 1)
  else sample(c('bus', 'auto'), size = 1)
})

zeit_bib <- 5 * 60 - 0.7 * anreise + rnorm(length(anreise), 0, 20)

grundgesamtheit <- tibble(student_id, geschlecht, wohnort, verkehrsmittel, anreise, zeit_bib)

grundgesamtheit

## # A tibble: 12,000 x 6
##    student_id geschlecht wohnort verkehrsmittel anreise zeit_bib
##         <int> <chr>      <chr>   <chr>            <dbl>    <dbl>
##  1          1 w          stadt   bus              15.1      294.
##  2          2 w          land    fahrrad          32.6      254.
##  3          3 w          stadt   fahrrad          19.3      231.
##  4          4 m          land    auto             35.9      245.
##  5          5 m          land    bus              37.9      234.
##  6          6 w          stadt   zu_fuss           6.59     303.
##  7          7 w          stadt   bus              23.5      284.
##  8          8 m          land    auto             36.2      274.
##  9          9 m          stadt   fahrrad          24.3      299.
## 10         10 w          stadt   bus              21.0      282.
## # … with 11,990 more rows

Nun befragen wir 200 Studierende.

set.seed(345)

befragung_size <- 200

befragung <- rep_sample_n(grundgesamtheit, size = befragung_size, replace = FALSE, reps = 1)

befragung

## # A tibble: 200 x 7
## # Groups:   replicate [1]
##    replicate student_id geschlecht wohnort verkehrsmittel anreise zeit_bib
##        <int>      <int> <chr>      <chr>   <chr>            <dbl>    <dbl>
##  1         1       1623 m          stadt   zu_fuss           7.06     299.
##  2         1       9171 m          stadt   fahrrad          11.3      278.
##  3         1      10207 w          land    bus             107.       199.
##  4         1       3506 w          stadt   bus              25.0      326.
##  5         1       8892 w          stadt   bus              28.1      259.
##  6         1       5460 m          stadt   bus              23.6      299.
##  7         1       6120 w          stadt   bus              20.0      268.
##  8         1        865 w          stadt   fahrrad          26.6      290.
##  9         1      11586 m          land    bus             114.       207.
## 10         1       8153 w          stadt   zu_fuss           8.06     297.
## # … with 190 more rows
…
Wir basieren unseren Test auf Permutation, d.h. wir permutieren mehrfach eine der Variablen und berechnen die Differenzen in den Anteilen der Stadtbewohner je nach Geschlecht für jede Permutation. Die Permutation wird von generate() automatisch richtig gewählt.

set.seed(123)

null_distn <- befragung %>%
  specify(wohnort ~ geschlecht, success = "stadt") %>%
  hypothesize(null = "independence") %>% 
  generate(reps = 10000) %>% 
  calculate(stat = "diff in props", order = c("w", "m"))

## Setting `type = "permute"` in `generate()`.

null_distn

## # A tibble: 10,000 x 2
##    replicate     stat
##        <int>    <dbl>
##  1         1 -0.0381 
##  2         2 -0.0180 
##  3         3  0.0221 
##  4         4  0.00201
##  5         5 -0.0982 
##  6         6  0.0221 
##  7         7  0.0622 
##  8         8  0.0421 
##  9         9  0.00201
## 10        10 -0.0581 
## # … with 9,990 more rows
…
