Kapitel 12 Inferenz in linearer Regression | Datenanalyse mit R
…
Wir generieren 10000 Bootstrap-Stichproben aus dem Datensatz befragung mit Hilfe der Funktion bootstraps() aus der Bibliothek rsample.

set.seed(123)

bootstrap_reps <- 10000

my_bootstraps <- bootstraps(befragung, times = bootstrap_reps)

Das Objekt my_bootstraps ist ein “verpacktes” (nested) Objekt. Jeder split ist eine Bootstrap-Stichprobe.

my_bootstraps

## # Bootstrap sampling 
## # A tibble: 10,000 x 2
##    splits           id            
##    <list>           <chr>         
##  1 <split [200/72]> Bootstrap00001
##  2 <split [200/72]> Bootstrap00002
##  3 <split [200/72]> Bootstrap00003
##  4 <split [200/70]> Bootstrap00004
##  5 <split [200/68]> Bootstrap00005
##  6 <split [200/68]> Bootstrap00006
##  7 <split [200/74]> Bootstrap00007
##  8 <split [200/69]> Bootstrap00008
##  9 <split [200/79]> Bootstrap00009
## 10 <split [200/73]> Bootstrap00010
## # … with 9,990 more rows

class(my_bootstraps)

## [1] "bootstraps" "rset"       "tbl_df"     "tbl"        "data.frame"

Wir sehen uns so eine Bootstrap-Stichprobe mal an. Dazu nutzen wir die Funktion analysis(), die solche splits richtig behandelt. Jede Bootstrap-Stichprobe ist durch Ziehen mit Zurücklegen aus dem Datensatz befragung hervorgegangen, das ist ja beim Bootstrap immer so.

analysis(my_bootstraps$splits[[1]])

## # A tibble: 200 x 7
## # Groups:   replicate [1]
##    replicate student_id geschlecht wohnort verkehrsmittel anreise zeit_bib
##        <int>      <int> <chr>      <chr>   <chr>            <dbl>    <dbl>
##  1         1       5641 w          stadt   fahrrad          21.0      304.
##  2         1       4887 w          stadt   zu_fuss          12.9      303.
##  3         1       2672 w          stadt   zu_fuss          10.8      313.
##  4         1       2771 m          stadt   zu_fuss           5.86     286.
##  5         1       8221 w          stadt   auto             18.2      310.
##  6         1       1236 w          stadt   zu_fuss           6.51     330.
##  7         1       5395 w          stadt   bus              25.9      297.
##  8         1      11681 m          land    bus             109.       245.
##  9         1       2672 w          stadt   zu_fuss          10.8      313.
## 10         1       5395 w          stadt   bus              25.9      297.
## # … with 190 more rows

Wie viele Studierende wurden mehrfach gezogen? Wir sehen uns als Beispiel die erste Bootstrap-Stichproben an.

analysis(my_bootstraps$splits[[1]]) %>%
  group_by(student_id) %>%
  summarise(n = n()) %>% 
  arrange(desc(n))

## # A tibble: 128 x 2
##    student_id     n
##         <int> <int>
##  1       4148     4
##  2       4384     4
##  3       5342     4
##  4       2043     3
##  5       2416     3
##  6       4045     3
##  7       4418     3
##  8       5395     3
##  9       5641     3
## 10       5971     3
## # … with 118 more rows
…
lm_est <- function(split, ...) {
  lm(zeit_bib ~ anreise, data = analysis(split)) %>%
    tidy()
}

model_res <- my_bootstraps %>%
  mutate(results = map(splits, .f = lm_est))

Wir sehen uns das entstandene Objekt mit allen angepassten Modellen an. Und \(\dots\) wir sehen nichts 😄.

model_res

## # Bootstrap sampling 
## # A tibble: 10,000 x 3
##    splits           id             results         
##    <list>           <chr>          <list>          
##  1 <split [200/72]> Bootstrap00001 <tibble [2 × 5]>
##  2 <split [200/72]> Bootstrap00002 <tibble [2 × 5]>
##  3 <split [200/72]> Bootstrap00003 <tibble [2 × 5]>
##  4 <split [200/70]> Bootstrap00004 <tibble [2 × 5]>
##  5 <split [200/68]> Bootstrap00005 <tibble [2 × 5]>
##  6 <split [200/68]> Bootstrap00006 <tibble [2 × 5]>
##  7 <split [200/74]> Bootstrap00007 <tibble [2 × 5]>
##  8 <split [200/69]> Bootstrap00008 <tibble [2 × 5]>
##  9 <split [200/79]> Bootstrap00009 <tibble [2 × 5]>
## 10 <split [200/73]> Bootstrap00010 <tibble [2 × 5]>
## # … with 9,990 more rows

Die Ergebnisse müssen wir noch “auspacken.”

model_coeffs <- model_res %>%
  # Die Spalte splits los werden.
  select(-splits) %>%
  # Und das Ergebnis in ein tibble umwandeln.
  unnest(results)

model_coeffs

## # A tibble: 20,000 x 6
##    id             term        estimate std.error statistic   p.value
##    <chr>          <chr>          <dbl>     <dbl>     <dbl>     <dbl>
##  1 Bootstrap00001 (Intercept)  301.       2.18       138.  1.29e-198
##  2 Bootstrap00001 anreise       -0.724    0.0531     -13.7 2.47e- 30
##  3 Bootstrap00002 (Intercept)  302.       2.40       126.  5.25e-191
##  4 Bootstrap00002 anreise       -0.781    0.0585     -13.3 2.11e- 29
##  5 Bootstrap00003 (Intercept)  302.       2.21       136.  8.71e-198
##  6 Bootstrap00003 anreise       -0.813    0.0506     -16.1 8.94e- 38
##  7 Bootstrap00004 (Intercept)  300.       2.22       135.  5.73e-197
##  8 Bootstrap00004 anreise       -0.751    0.0554     -13.6 4.93e- 30
##  9 Bootstrap00005 (Intercept)  299.       2.18       137.  2.89e-198
## 10 Bootstrap00005 anreise       -0.742    0.0493     -15.1 1.19e- 34
## # … with 19,990 more rows
…
