Kapitel 7 Stichproben und Variabilität | Datenanalyse mit R
…
verkehrsmittel <- sapply(anreise, function(x) {
  if(x <= 10) 'zu_fuss'
  else if(x > 10 & x <= 15) sample(c('zu_fuss', 'fahrrad'), size = 1)
  else if(x > 15 & x <= 45) sample(c('bus', 'fahrrad', 'auto'), size = 1)
  else sample(c('bus', 'auto'), size = 1)
})

zeit_bib <- 5 * 60 - 0.7 * anreise + rnorm(length(anreise), 0, 20)

grundgesamtheit <- tibble(student_id, geschlecht, wohnort, verkehrsmittel, anreise, zeit_bib)

grundgesamtheit

## # A tibble: 12,000 × 6
##    student_id geschlecht wohnort verkehrsmittel anreise zeit_bib
##         <int> <chr>      <chr>   <chr>            <dbl>    <dbl>
##  1          1 w          stadt   bus              15.1      294.
##  2          2 w          land    fahrrad          32.6      254.
##  3          3 w          stadt   fahrrad          19.3      231.
##  4          4 m          land    auto             35.9      245.
##  5          5 m          land    bus              37.9      234.
##  6          6 w          stadt   zu_fuss           6.59     303.
##  7          7 w          stadt   bus              23.5      284.
##  8          8 m          land    auto             36.2      274.
##  9          9 m          stadt   fahrrad          24.3      299.
## 10         10 w          stadt   bus              21.0      282.
## # … with 11,990 more rows

Wir wollen nun 50 Studierende befragen. Durch die zufällige Auswahl an Befragten erzeugen wir eine zufällige Stichprobe. Übersetzt in unser Computerexperiment bedeutet es, dass wir zufällig 50 Zeilen aus dem Datensatz grundgesamtheit ziehen, und zwar so, dass sich diese Zeilen nicht wiederholen (d.h. niemand mehrfach befragt wird). Dazu nutzen wir die Funktion rep_sample_n(), die wiederholt (rep) n Zeilen zieht (sample), und zwar mit der Einstellung replace = FALSE, also ohne Zurücklegen. Wir befragen nur einmal, daher reps = 1.

Damit alle wieder dieselben Daten bekommen, setzen wir vorher den seed (Zustand des Zufallszahlengenerators). Die Variable befragung_size gibt die Stichprobengröße an.

set.seed(345)

befragung_size <- 50

befragung <- rep_sample_n(grundgesamtheit, size = befragung_size, replace = FALSE, reps = 1)

befragung

## # A tibble: 50 × 7
## # Groups:   replicate [1]
##    replicate student_id geschlecht wohnort verkehrsmittel anreise zeit_bib
##        <int>      <int> <chr>      <chr>   <chr>            <dbl>    <dbl>
##  1         1       1623 m          stadt   zu_fuss           7.06     299.
##  2         1       9171 m          stadt   fahrrad          11.3      278.
##  3         1      10207 w          land    bus             107.       199.
##  4         1       3506 w          stadt   bus              25.0      326.
##  5         1       8892 w          stadt   bus              28.1      259.
##  6         1       5460 m          stadt   bus              23.6      299.
##  7         1       6120 w          stadt   bus              20.0      268.
##  8         1        865 w          stadt   fahrrad          26.6      290.
##  9         1      11586 m          land    bus             114.       207.
## 10         1       8153 w          stadt   zu_fuss           8.06     297.
## # … with 40 more rows
…
Es wohnen also 42% auf dem Land und 58% in der Stadt.

Was passiert, wenn wir die Befragung mehrfach wiederholen, sagen wir 33 Mal? In der Realität ist dieses Szenario sehr unwahrscheinlich, aber in einem Computerexperiment einfach zu implementieren. Es hilft uns ein Gefühl für die Variabilität, die durch das zufällige Auswählen der Studierenden bei der Befragung entsteht, zu entwickeln.

Wir setzten erneut den seed, damit alle dieselben Ergebnisse bekommen.

set.seed(234)

befragung_reps <- rep_sample_n(grundgesamtheit, size = befragung_size, replace = FALSE, reps = 33)

befragung_reps

## # A tibble: 1,650 × 7
## # Groups:   replicate [33]
##    replicate student_id geschlecht wohnort verkehrsmittel anreise zeit_bib
##        <int>      <int> <chr>      <chr>   <chr>            <dbl>    <dbl>
##  1         1       2079 m          land    auto              38.8     262.
##  2         1       1314 m          stadt   fahrrad           13.3     301.
##  3         1       1710 m          stadt   auto              26.5     272.
##  4         1       4386 w          stadt   bus               23.9     269.
##  5         1       9490 m          land    auto              34.2     262.
##  6         1      11757 w          land    bus              102.      227.
##  7         1      11649 w          land    bus              111.      202.
##  8         1       2244 m          land    bus               38.9     256.
##  9         1       3652 w          stadt   fahrrad           10.3     254.
## 10         1       3127 m          stadt   fahrrad           29.6     271.
## # … with 1,640 more rows

Jetzt wird uns angezeigt, dass es in dem Datensatz befragung_reps 33 replicates (Wiederholgungen) gibt. Diese sind einfach nacheinander in befragung_reps angeordnet (blättern Sie durch den Datensatz). Dementsprechend hat der Datensatz 50 \(\times\) 33 = 1650 Zeilen.

Wie sieht es jetzt mit den Anteilen von Stadt- und Landbewohnern aus? Wir müssen nun zusätzlich zum wohnort auch noch nach replicate gruppieren.

wohnort_props <- befragung_reps %>% 
  group_by(replicate, wohnort) %>% 
  summarise(prop = n()/befragung_size)

wohnort_props

## # A tibble: 66 × 3
## # Groups:   replicate [33]
##    replicate wohnort  prop
##        <int> <chr>   <dbl>
##  1         1 land     0.42
##  2         1 stadt    0.58
##  3         2 land     0.36
##  4         2 stadt    0.64
##  5         3 land     0.4 
##  6         3 stadt    0.6 
##  7         4 land     0.38
##  8         4 stadt    0.62
##  9         5 land     0.4 
## 10         5 stadt    0.6 
## # … with 56 more rows
…
