Kapitel 6 Der explorative Workflow mit tidyverse | Datenanalyse mit R
…
Eine weitere Kontrolle bietet die Funktion print(), die das eingelesene Ergebnis übersichtlich (und im Notebook interaktiv) darstellt. Sie müssen hier nicht head() verwenden, da grundsätzlich nur die ersten 10 Zeilen dargestellt werden.

print(temp_humid)

## # A tibble: 39,600 x 6
##    STATIONS_ID MESS_DATUM  QN_9 TT_TU RF_TU eor  
##          <dbl>      <dbl> <dbl> <dbl> <dbl> <chr>
##  1        2261 2018111900     3  -2.8    99 eor  
##  2        2261 2018111901     3  -2.5   100 eor  
##  3        2261 2018111902     3  -2.3   100 eor  
##  4        2261 2018111903     3  -2     100 eor  
##  5        2261 2018111904     3  -1.9    99 eor  
##  6        2261 2018111905     3  -2.1    99 eor  
##  7        2261 2018111906     3  -1.8    99 eor  
##  8        2261 2018111907     3  -1.5    99 eor  
##  9        2261 2018111908     3  -1.1    99 eor  
## 10        2261 2018111909     3  -0.6    97 eor  
## # … with 39,590 more rows

Das gleiche Ergebnis bekommen Sie auch ohne print(), wenn Sie wie gewohnt den Namen des Objekts tippen.

temp_humid

## # A tibble: 39,600 x 6
##    STATIONS_ID MESS_DATUM  QN_9 TT_TU RF_TU eor  
##          <dbl>      <dbl> <dbl> <dbl> <dbl> <chr>
##  1        2261 2018111900     3  -2.8    99 eor  
##  2        2261 2018111901     3  -2.5   100 eor  
##  3        2261 2018111902     3  -2.3   100 eor  
##  4        2261 2018111903     3  -2     100 eor  
##  5        2261 2018111904     3  -1.9    99 eor  
##  6        2261 2018111905     3  -2.1    99 eor  
##  7        2261 2018111906     3  -1.8    99 eor  
##  8        2261 2018111907     3  -1.5    99 eor  
##  9        2261 2018111908     3  -1.1    99 eor  
## 10        2261 2018111909     3  -0.6    97 eor  
## # … with 39,590 more rows
…
## [1] "spec_tbl_df" "tbl_df"      "tbl"         "data.frame"

Das Objekt temp_humid ist ein tibble, ein data.frame mit “modernem” Verhalten. Z.B. gibt die Funktion print() nur die ersten 10 Zeilen aus, die Datentypen in den Spalten werden in hellgrau zwischen ‘<>’ mit angegeben etc. Mehr zu Tibbles finden Sie in Kapitel 10 “Tibbles” in R4DS.

6.3 Geschickter Umgang mit Zeit und Datum

Ein weiteres Paket, dass zwar nicht zum Kern von tidyverse gehört, jedoch trotzdem extrem nützlich ist, heißt lubridate. Es hilft, Text sehr einfach in richtige Datums-Objekte zu transformieren (in Base-R muss man sich dafür kryptischen Datumsformate merken). Wir transformieren die Spalte temp_humid$MESS_DATUM in ein richtiges Datum mit Uhrzeit. Die Funktion ymd_h() kann character in ein richtiges Datumsformat transformieren, wenn das Datum als year, month, day, hour codiert ist. Es gibt noch weitere Varianten der Codierung, die Sie bei Bedarf in der Hilfe nachschlagen sollten.

library(lubridate)

temp_humid$MESS_DATUM <- ymd_h(temp_humid$MESS_DATUM)

temp_humid

## # A tibble: 39,600 x 6
##    STATIONS_ID MESS_DATUM           QN_9 TT_TU RF_TU eor  
##          <dbl> <dttm>              <dbl> <dbl> <dbl> <chr>
##  1        2261 2018-11-19 00:00:00     3  -2.8    99 eor  
##  2        2261 2018-11-19 01:00:00     3  -2.5   100 eor  
##  3        2261 2018-11-19 02:00:00     3  -2.3   100 eor  
##  4        2261 2018-11-19 03:00:00     3  -2     100 eor  
##  5        2261 2018-11-19 04:00:00     3  -1.9    99 eor  
##  6        2261 2018-11-19 05:00:00     3  -2.1    99 eor  
##  7        2261 2018-11-19 06:00:00     3  -1.8    99 eor  
##  8        2261 2018-11-19 07:00:00     3  -1.5    99 eor  
##  9        2261 2018-11-19 08:00:00     3  -1.1    99 eor  
## 10        2261 2018-11-19 09:00:00     3  -0.6    97 eor  
## # … with 39,590 more rows
…
6.4.2 Neue Variablen erstellen mit mutate()

Wir wollen nun die Monatsmittelwerte und die Standardabweichungen für die Temperatur berechnen und diese darstellen. Als erstes erstellen wir zwei neue Spalten, die jeweils das Jahr und den Monat beinhalten. Die beiden neuen Spalten werden am Ende von temp_humid angehängt. Um neue Spalten zu erstellen, nutzen wir die Funktion mutate(). Die Funktionen year()und month() gehören zur Bibliothek lubridate und extrahieren jeweils das Jahr und den Monat aus MESS_DATUM.

temp_humid <- temp_humid %>% 
  mutate(year = year(MESS_DATUM),
         month = month(MESS_DATUM))

temp_humid

## # A tibble: 39,600 x 8
##    STATIONS_ID MESS_DATUM           QN_9 TT_TU RF_TU eor    year month
##          <dbl> <dttm>              <dbl> <dbl> <dbl> <chr> <dbl> <dbl>
##  1        2261 2018-11-19 00:00:00     3  -2.8    99 eor    2018    11
##  2        2261 2018-11-19 01:00:00     3  -2.5   100 eor    2018    11
##  3        2261 2018-11-19 02:00:00     3  -2.3   100 eor    2018    11
##  4        2261 2018-11-19 03:00:00     3  -2     100 eor    2018    11
##  5        2261 2018-11-19 04:00:00     3  -1.9    99 eor    2018    11
##  6        2261 2018-11-19 05:00:00     3  -2.1    99 eor    2018    11
##  7        2261 2018-11-19 06:00:00     3  -1.8    99 eor    2018    11
##  8        2261 2018-11-19 07:00:00     3  -1.5    99 eor    2018    11
##  9        2261 2018-11-19 08:00:00     3  -1.1    99 eor    2018    11
## 10        2261 2018-11-19 09:00:00     3  -0.6    97 eor    2018    11
## # … with 39,590 more rows

Jetzt können wir einen neuen Datensatz mit den Mittelwerten erstellen. Dafür gruppieren wir erst einmal die Daten nach STATIONS_ID, year und month. Die Mittelwerte sollen ja je Station, Jahr und Monat berechnet werden. Beim Gruppieren gibt man die Variablen ohne Anführungszeichen und ohne einen Vektor zu bilden einfach durch Kommas getrennt an.

monthly_means <- temp_humid %>%
  group_by(STATIONS_ID, year, month) %>% 
  summarize(mean_T = mean(TT_TU), mean_RH = mean(RF_TU),
            sd_T = sd(TT_TU), sd_RH = sd(RF_TU))

## `summarise()` has grouped output by 'STATIONS_ID', 'year'. You can override using the `.groups` argument.

monthly_means

## # A tibble: 57 x 7
## # Groups:   STATIONS_ID, year [9]
##    STATIONS_ID  year month mean_T mean_RH  sd_T sd_RH
##          <dbl> <dbl> <dbl>  <dbl>   <dbl> <dbl> <dbl>
##  1        1420  2018    11   4.00    79.7  1.82  9.96
##  2        1420  2018    12   4.73    83.7  4.20 11.7 
##  3        1420  2019     1   2.12    79.3  3.76 10.0 
##  4        1420  2019     2   4.48    74.1  4.69 17.7 
##  5        1420  2019     3   8.28    68.5  4.08 16.1 
##  6        1420  2019     4  11.7     61.0  5.52 21.8 
##  7        1420  2019     5  12.7     67.5  4.64 20.1 
##  8        1420  2019     6  21.4     60.6  6.05 21.2 
##  9        1420  2019     7  21.6     55.6  5.90 21.8 
## 10        1420  2019     8  20.7     65.6  4.94 20.8 
## # … with 47 more rows
…
Da wir aber mit den Daten weiter rechnen wollen, ist es besser, die Gruppierung wieder aufzugeben. Es könnte sonst später Fehlermeldungen geben.

monthly_means <- ungroup(monthly_means)

Um die Daten als Zeitreihen zu plotten, erstellen wir noch eine ordentliche Zeit-Spalte. Die Funktion parse_date_time() kann aus Character richtige Datums-Zeitobjekte erstellen. Sie ist allgemeiner als die oben verwendete ymd_h() Funktion, da man hier das Format explizit angeben kann. In unserem Fall ist das Format ‘ym’ für Jahr und Monat.

monthly_means <- monthly_means %>%
  mutate(year_month = parse_date_time(paste0(year, month), orders = 'ym', tz = 'CET'))

monthly_means

## # A tibble: 57 x 8
##    STATIONS_ID  year month mean_T mean_RH  sd_T sd_RH year_month         
##          <dbl> <dbl> <dbl>  <dbl>   <dbl> <dbl> <dbl> <dttm>             
##  1        1420  2018    11   4.00    79.7  1.82  9.96 2018-11-01 00:00:00
##  2        1420  2018    12   4.73    83.7  4.20 11.7  2018-12-01 00:00:00
##  3        1420  2019     1   2.12    79.3  3.76 10.0  2019-01-01 00:00:00
##  4        1420  2019     2   4.48    74.1  4.69 17.7  2019-02-01 00:00:00
##  5        1420  2019     3   8.28    68.5  4.08 16.1  2019-03-01 00:00:00
##  6        1420  2019     4  11.7     61.0  5.52 21.8  2019-04-01 00:00:00
##  7        1420  2019     5  12.7     67.5  4.64 20.1  2019-05-01 00:00:00
##  8        1420  2019     6  21.4     60.6  6.05 21.2  2019-06-01 00:00:00
##  9        1420  2019     7  21.6     55.6  5.90 21.8  2019-07-01 00:00:00
## 10        1420  2019     8  20.7     65.6  4.94 20.8  2019-08-01 00:00:00
## # … with 47 more rows
…
